Tissue,Detail,Type,scz.Alex,Alcohol.Manav,CAD.Johan,CAD.Jason,LDL.Johan,AD.Dado,scz.Kristen,AD.Alison,BMI.Loss,Alcohol.Jacquelyn,BMI.Alex,LDL.Jason
Astrocytes,astrocytes_ependymal,Cell,0,1,NA,NA,NA,1,0,1,NA,NA,NA,NA
Neuron,Dopaminergic Adult,Cell,1,1,NA,NA,NA,0,0,0,NA,NA,1,NA
Neuron,Dopaminergic Neuroblast,Cell,1,1,NA,NA,NA,0,0,0,NA,NA,NA,NA
Neuron,Embryonic Dopaminergic Neuron,Cell,1,1,NA,NA,NA,0,0,0,NA,NA,1,NA
Neuron,Embryonic GABAergic Neuron,Cell,1,1,NA,NA,NA,0,1,0,NA,NA,1,NA
Neuron,Embryonic midbrain nucleus neurons,Cell,1,1,NA,NA,NA,0,0,0,NA,NA,1,NA
endothelial-mural,endothelial-mural,Cell,0,1,NA,NA,NA,0,0,0,NA,NA,NA,NA
Neuron,Hypothalamic Dopaminergic Neurons,Cell,1,0,NA,NA,NA,0,0,0,NA,NA,1,NA
Neuron,Hypothalamic GABAergic Neurons,Cell,1,0,NA,NA,NA,0,1,0,NA,NA,1,NA
Neuron,Hypothalamic Glutamatergic Neurons,Cell,1,0,NA,NA,NA,0,1,0,NA,NA,1,NA
Neuron,interneurons,Cell,1,0,NA,NA,NA,0,1,0,NA,NA,NA,NA
Neuron,Medium Spiny Neuron,Cell,1,0,NA,NA,NA,0,1,0,NA,NA,NA,NA
microglia,microglia,Cell,0,1,NA,NA,NA,1,0,1,NA,NA,NA,NA
Neuron,Neural Progenitors,Cell,1,0,NA,NA,NA,0,1,0,NA,NA,NA,NA
Neuron,Neuroblasts,Cell,1,0,NA,NA,NA,0,1,0,NA,NA,NA,NA
Oligodendrocyte Precursor,Oligodendrocyte Precursor,Cell,0,0,NA,NA,NA,1,0,0,NA,NA,NA,NA
Oligodendrocytes,Oligodendrocytes,Cell,0,0,NA,NA,NA,1,0,1,NA,NA,NA,NA
Neuron,Oxytocin and Vasopressin Expressing Neurons,Cell,1,0,NA,NA,NA,0,0,0,NA,NA,NA,NA
Neuron,pyramidal CA1,Cell,1,0,NA,NA,NA,0,1,1,NA,NA,NA,NA
Neuron,pyramidal SS,Cell,1,0,NA,NA,NA,0,1,1,NA,NA,NA,NA
Radial glia like cells,Radial glia like cells,Cell,0,0,NA,NA,NA,0,1,1,NA,NA,NA,NA
Neuron,Serotonergic Neuron,Cell,1,1,NA,NA,NA,0,0,0,NA,NA,1,NA
Neuron,Striatal Interneuron,Cell,1,0,NA,NA,NA,0,1,0,NA,NA,NA,NA
Vascular Leptomeningeal Cells,Vascular Leptomeningeal Cells,Cell,0,0,NA,NA,NA,0,0,1,NA,NA,NA,NA
Adipose Tissue,Adipose - Subcutaneous,Tissue,0,0,7,1,3,1,0,0,1,NA,1,1
Adipose Tissue,Adipose - Visceral (Omentum),Tissue,0,0,5,1,2,1,0,0,1,NA,1,1
Adrenal Gland,Adrenal Gland,Tissue,0,0,10,NA,7,0,0,0,NA,NA,NA,NA
Bladder,Bladder,Tissue,0,1,27,NA,27,0,0,0,NA,NA,NA,NA
Blood,Whole Blood,Tissue,0,1,4,1,5,1,0,1,1,NA,NA,1
Blood,Cells - EBV-transformed lymphocytes,Tissue,0,0,27,NA,27,1,0,1,NA,NA,NA,NA
Blood Vessel,Artery - Tibial,Tissue,0,0,2,NA,24,0,0,0,NA,NA,NA,NA
Blood Vessel,Artery - Coronary,Tissue,0,0,1,NA,23,0,0,0,NA,NA,NA,NA
Blood Vessel,Artery - Aorta,Tissue,0,0,3,1,25,0,0,0,NA,NA,NA,1
Bone Marrow,Cells - Leukemia cell line (CML),Tissue,0,0,27,NA,27,0,0,0,NA,NA,NA,NA
Brain,Brain - Frontal Cortex (BA9),Tissue,1,1,26,NA,18,1,1,1,1,1,1,NA
Brain,Brain - Cortex,Tissue,1,1,26,NA,18,1,1,1,1,1,1,NA
Brain,Brain - Cerebellum,Tissue,1,0,26,NA,18,1,1,1,1,1,NA,NA
Brain,Brain - Cerebellar Hemisphere,Tissue,1,0,26,NA,18,1,1,1,1,1,NA,NA
Brain,Brain - Caudate (basal ganglia),Tissue,1,1,26,NA,18,1,1,1,1,1,NA,NA
Brain,Brain - Nucleus accumbens (basal ganglia),Tissue,1,1,26,NA,18,1,1,1,1,1,1,NA
Brain,Brain - Putamen (basal ganglia),Tissue,1,0,26,NA,18,1,1,1,1,1,NA,NA
Brain,Brain - Hypothalamus,Tissue,1,0,9,1,4,1,1,1,1,1,1,1
Brain,Brain - Spinal cord (cervical c-1),Tissue,1,0,26,NA,18,1,1,1,1,1,NA,NA
Brain,Brain - Hippocampus,Tissue,1,0,26,NA,18,1,1,1,1,1,NA,NA
Brain,Brain - Anterior cingulate cortex (BA24),Tissue,1,0,26,NA,18,1,1,1,1,1,1,NA
Brain,Brain - Substantia nigra,Tissue,1,1,26,NA,18,1,1,1,1,1,1,NA
Brain,Brain - Amygdala,Tissue,1,0,26,NA,18,1,1,1,1,1,1,NA
Breast,Breast - Mammary Tissue,Tissue,0,0,27,NA,27,0,0,0,NA,NA,NA,NA
Cervix Uteri,Cervix - Ectocervix,Tissue,0,0,27,NA,27,0,0,0,NA,NA,NA,NA
Cervix Uteri,Cervix - Endocervix,Tissue,0,0,27,NA,27,0,0,0,NA,NA,NA,NA
Colon,Colon - Sigmoid,Tissue,0,1,23,NA,15,0,0,0,NA,2,NA,NA
Colon,Colon - Transverse,Tissue,0,0,23,NA,15,0,0,0,NA,2,NA,NA
Esophagus,Esophagus - Muscularis,Tissue,0,1,27,NA,27,0,0,0,NA,2,NA,NA
Esophagus,Esophagus - Mucosa,Tissue,0,1,27,NA,27,0,0,0,NA,2,NA,NA
Esophagus,Esophagus - Gastroesophageal Junction,Tissue,0,1,27,NA,27,0,0,0,NA,2,NA,NA
Fallopian Tube,Fallopian Tube,Tissue,0,0,27,NA,27,0,0,0,NA,NA,NA,NA
Heart,Heart - Atrial Appendage,Tissue,0,1,27,NA,27,0,0,0,1,2,NA,NA
Heart,Heart - Left Ventricle,Tissue,0,1,11,NA,26,0,0,0,NA,2,NA,NA
Kidney,Kidney - Cortex,Tissue,0,1,14,NA,10,0,0,0,NA,2,NA,NA
Kidney,Kidney - Medulla,Tissue,0,1,15,NA,11,0,0,0,NA,2,NA,NA
Liver,Liver,Tissue,0,1,6,NA,1,1,0,1,NA,1,NA,NA
Lung,Lung,Tissue,0,1,21,NA,13,1,0,0,NA,2,NA,NA
Muscle,Muscle - Skeletal,Tissue,0,0,8,1,6,0,0,0,NA,NA,NA,1
Nerve,Nerve - Tibial,Tissue,0,0,27,NA,27,0,1,0,NA,NA,NA,NA
Ovary,Ovary,Tissue,0,0,19,NA,22,0,0,0,NA,NA,NA,NA
Pancreas,Pancreas,Tissue,0,1,20,NA,12,0,0,0,NA,2,1,NA
Pituitary,Pituitary,Tissue,0,0,16,NA,19,0,0,0,NA,2,NA,NA
Prostate,Prostate,Tissue,0,0,27,NA,27,0,0,0,NA,2,NA,NA
Salivary Gland,Minor Salivary Gland,Tissue,0,0,27,NA,27,0,0,0,NA,NA,NA,NA
Skin,Skin - Not Sun Exposed (Suprapubic),Tissue,0,0,13,NA,9,0,1,0,NA,NA,NA,NA
Skin,Skin - Sun Exposed (Lower leg),Tissue,0,0,12,NA,8,0,1,0,NA,NA,NA,NA
Skin,Cells - Cultured fibroblasts,Tissue,0,0,27,NA,27,0,1,0,NA,NA,NA,NA
Small Intestine,Small Intestine - Terminal Ileum,Tissue,0,0,25,NA,17,0,0,0,NA,2,NA,NA
Spleen,Spleen,Tissue,0,0,18,NA,21,1,0,0,NA,2,NA,NA
Stomach,Stomach,Tissue,0,1,24,NA,16,0,0,0,NA,2,NA,NA
Testis,Testis,Tissue,0,0,17,NA,20,0,0,0,NA,NA,NA,NA
Thyroid,Thyroid,Tissue,0,0,22,NA,14,0,0,0,NA,NA,1,NA
Uterus,Uterus,Tissue,0,0,27,NA,27,0,0,0,NA,NA,NA,NA
Vagina,Vagina,Tissue,0,0,27,NA,27,0,0,0,NA,NA,NA,NA
